2.546341160202026401e+02
2.766863716125488182e+01
1.983588056564331126e+01
1.800584276199340650e+01
1.680255801200866728e+01
1.579676021575927791e+01
1.486482175827026353e+01
1.419973568916320872e+01
1.360159647941589434e+01
1.296277695655822804e+01
1.251571748733520550e+01
1.204834740638732882e+01
1.173411073684692418e+01
1.147795947074890144e+01
1.128408021926879812e+01
1.101633654594421330e+01
1.087794738769531300e+01
1.066266345024108908e+01
1.051425280570983922e+01
1.058044517517089922e+01
1.022008591651916554e+01
1.024254553318023753e+01
1.007971953392028830e+01
1.013593342781066831e+01
1.002016522884368932e+01
9.905444927215576456e+00
9.905991878509521342e+00
1.044187231063842702e+01
9.804544200897217010e+00
9.792900018692016317e+00
9.763207359313964773e+00
9.819876260757446573e+00
9.757894554138182741e+00
9.663068008422850852e+00
9.583127527236937837e+00
9.283500638008117534e+00
9.249727144241333576e+00
9.207557325363159961e+00
9.192423372268676118e+00
9.129334444999694043e+00
9.256484236717223979e+00
9.056853795051575062e+00
9.077380409240722869e+00
9.058263258934021067e+00
8.872602057456969504e+00
8.902292060852051492e+00
8.733913397789001110e+00
8.832865118980407715e+00
8.689625396728516193e+00
8.685931468009949086e+00
