3.108821883010864440e+02
2.976356538772582994e+01
1.708180897712707491e+01
1.493074215888977108e+01
1.369949690818786614e+01
1.265228488922119077e+01
1.163639837265014698e+01
1.094771100044250467e+01
1.016086760520935073e+01
9.661469707489013459e+00
9.156477298736572124e+00
8.697457108497619771e+00
8.441709589958190207e+00
8.132279472351074290e+00
7.818910036087036275e+00
7.570718865394592711e+00
7.513823480606078853e+00
7.280682368278503347e+00
7.138523821830749405e+00
6.987618222236632981e+00
6.695992546081543040e+00
6.532157516479491832e+00
6.476328949928284118e+00
6.439940061569213725e+00
6.237410159111022701e+00
6.159643378257751323e+00
6.130685453414916886e+00
6.122531948089599219e+00
6.040046339035034073e+00
6.037702417373656871e+00
6.004027094841003276e+00
5.961115198135376048e+00
5.875175261497497914e+00
5.904931240081786825e+00
5.909916267395019851e+00
5.753730936050414968e+00
5.723723688125610387e+00
5.716834278106689204e+00
5.699315938949585103e+00
5.654056663513183700e+00
5.712513661384582164e+00
5.634000668525695588e+00
5.543494019508361959e+00
5.540612750053405478e+00
5.556166501045226802e+00
5.509548301696777450e+00
5.510992445945739782e+00
5.500526032447814906e+00
5.493207712173461488e+00
5.453275771141051997e+00
