3.883405078887939510e+01
2.041971654891967702e+01
1.753071426391601406e+01
1.653260623931884865e+01
1.582795208930969189e+01
1.435966010093688894e+01
1.336616354942321827e+01
1.265675634384155224e+01
1.200191398620605554e+01
1.178188778877258258e+01
1.106541409492492711e+01
1.071879764556884851e+01
1.049712974548339872e+01
9.984497270584107298e+00
9.878334798812865358e+00
9.518408164978026775e+00
9.444992704391479421e+00
9.198121595382691140e+00
8.994231595993042561e+00
8.810361590385436870e+00
8.745676298141479066e+00
8.638615274429321644e+00
8.509506378173828267e+00
8.462703261375427388e+00
8.368685040473938130e+00
8.343847727775573375e+00
8.349923844337462597e+00
8.213929958343506144e+00
8.153749818801879101e+00
8.103522367477417276e+00
7.776285982131957653e+00
7.666716055870056223e+00
7.640183181762695064e+00
7.612919187545776012e+00
7.575922479629516815e+00
7.572098507881164231e+00
7.513499646186828862e+00
7.541755790710449325e+00
7.462319097518920863e+00
7.414390721321105993e+00
7.188945307731628098e+00
7.117462687492370321e+00
7.174989767074585245e+00
7.128882846832275355e+00
7.141871986389159765e+00
6.994514002799987473e+00
6.954486045837402486e+00
6.917537269592284765e+00
6.838665442466735911e+00
6.853799080848693492e+00
