1.997102878570556683e+01
1.161897206115722696e+02
4.201325485229492074e+01
5.497488660888671802e+03
1.932128532409667798e+01
1.486635925292968707e+01
1.473775920867919886e+01
1.440161922454833920e+01
1.358207794189453210e+01
1.273047786712646534e+01
1.252291990280151346e+01
1.229249019622802663e+01
1.175002378463745067e+01
1.152867721557617209e+01
1.150724336624145572e+01
1.114514530181884844e+01
1.086484128952026396e+01
1.121320493698120124e+01
1.066726312637329066e+01
1.048385328292846630e+01
1.040455154418945227e+01
9.993968830108642010e+00
9.959264125823974467e+00
1.000754049301147397e+01
9.902520694732665163e+00
9.979931564331055327e+00
9.619490261077880078e+00
9.586947498321533701e+00
9.543607521057129617e+00
9.338750839233398438e+00
9.328689785003662749e+00
9.823146095275879119e+00
9.088614492416381196e+00
9.024655323028564879e+00
1.011025493621826143e+01
9.147343368530274077e+00
9.058487529754637890e+00
8.746636066436767720e+00
9.049258785247802805e+00
8.603087244033813974e+00
8.705588235855103107e+00
8.614125900268554403e+00
8.462872486114502379e+00
8.542346420288085440e+00
8.560826053619384979e+00
8.729870691299439045e+00
8.460413122177124379e+00
8.080267744064331126e+00
8.420492715835571573e+00
8.386066055297851207e+00
