2.326777770233154286e+02
2.631491954803466626e+01
1.825158778190612807e+01
1.618087943077087232e+01
1.501605199813842795e+01
1.398425102233886719e+01
1.292457166671752944e+01
1.211679489135742216e+01
1.159500846862792933e+01
1.093373029708862276e+01
1.050097940444946332e+01
1.015023670196533168e+01
9.749516782760620615e+00
9.547931289672851207e+00
9.238360424041747621e+00
9.110576834678649760e+00
8.909269661903381987e+00
8.689446530342102903e+00
8.651563811302185769e+00
8.513868083953857635e+00
8.442195568084716939e+00
8.366463956832886240e+00
8.205538444519042685e+00
8.207166495323180655e+00
8.410561962127685476e+00
8.140981597900390554e+00
8.064106369018555043e+00
8.022712516784668679e+00
7.729430069923401092e+00
7.554402914047241069e+00
7.683896689414978276e+00
7.548182682991027903e+00
7.451858272552490448e+00
7.443913946151733185e+00
7.313068909645080495e+00
7.213653039932251154e+00
7.264069695472716859e+00
7.160889286994933656e+00
7.140218839645386062e+00
7.188078346252441797e+00
7.080722045898437678e+00
6.991525859832763423e+00
6.960129199028014746e+00
6.915583996772766362e+00
6.897674918174743652e+00
6.975744161605835103e+00
6.877164835929870712e+00
6.886461205482483194e+00
6.884645519256591406e+00
6.884432997703552104e+00
